Labs/Project/Analysis/data/SDS00063.csv

Record Length,Analog:3500,
Sample Interval,Analog:2.000000E-09,
Vertical Units,CH1:V, CH2:V, CH3:V,,
Vertical Scale,CH1:+2.000000E+00, CH2:+5.000000E+00, CH3:+1.000000E-02,,
Vertical Offset,CH1:+0.000000E+00, CH2:+0.000000E+00, CH3:+0.000000E+00,,
Horizontal Units,us,
Horizontal Scale,+5.000000E-01,
Model Number,T3DSO1204 ,
Serial Number,T0101C21531109,
Software Version,8.3.6.1.37R8,
Source,CH1,CH2,CH3
Second,Value,Value,Value
-5.500000E-07,-1.600000E-01,+0.000000E+00,-8.000000E-04
-5.480000E-07,-1.600000E-01,+0.000000E+00,-8.000000E-04
-5.460000E-07,-1.600000E-01,+0.000000E+00,-8.000000E-04
-5.440000E-07,-1.600000E-01,+0.000000E+00,-4.000000E-04
-5.420000E-07,-1.600000E-01,+0.000000E+00,-4.000000E-04
-5.400000E-07,-8.000000E-02,+0.000000E+00,-8.000000E-04
-5.380000E-07,-1.600000E-01,+0.000000E+00,-4.000000E-04
-5.360000E-07,-1.600000E-01,+0.000000E+00,+0.000000E+00
-5.340000E-07,-1.600000E-01,+0.000000E+00,+0.000000E+00
-5.320000E-07,-1.600000E-01,+0.000000E+00,-4.000000E-04
-5.300000E-07,-8.000000E-02,+0.000000E+00,-8.000000E-04
-5.280000E-07,-8.000000E-02,+0.000000E+00,-8.000000E-04
-5.260000E-07,-1.600000E-01,+0.000000E+00,-8.000000E-04
-5.240000E-07,-1.600000E-01,+0.000000E+00,-4.000000E-04
-5.220000E-07,-1.600000E-01,+0.000000E+00,-4.000000E-04
-5.200000E-07,-8.000000E-02,+0.000000E+00,-4.000000E-04
-5.180000E-07,-1.600000E-01,+0.000000E+00,-8.000000E-04
-5.160000E-07,-1.600000E-01,+0.000000E+00,-4.000000E-04
-5.140000E-07,-8.000000E-02,+0.000000E+00,+0.000000E+00
-5.120000E-07,-1.600000E-01,+0.000000E+00,+0.000000E+00
-5.100000E-07,-1.600000E-01,+0.000000E+00,-4.000000E-04
-5.080000E-07,-1.600000E-01,+0.000000E+00,-8.000000E-04
-5.060000E-07,-8.000000E-02,+0.000000E+00,-8.000000E-04
-5.040000E-07,-8.000000E-02,+0.000000E+00,-8.000000E-04
-5.020000E-07,-1.600000E-01,+0.000000E+00,-4.000000E-04
-5.000000E-07,-1.600000E-01,+0.000000E+00,-4.000000E-04
-4.980000E-07,-1.600000E-01,+0.000000E+00,-8.000000E-04
-4.960000E-07,-8.000000E-02,+0.000000E+00,-4.000000E-04
-4.940000E-07,-1.600000E-01,+0.000000E+00,-4.000000E-04
-4.920000E-07,-1.600000E-01,+0.000000E+00,-4.000000E-04
-4.900000E-07,-1.600000E-01,+0.000000E+00,+0.000000E+00
-4.880000E-07,-1.600000E-01,+0.000000E+00,-4.000000E-04
-4.860000E-07,-1.600000E-01,+0.000000E+00,-8.000000E-04
-4.840000E-07,-1.600000E-01,+0.000000E+00,-8.000000E-04
-4.820000E-07,-1.600000E-01,+0.000000E+00,-8.000000E-04
-4.800000E-07,-1.600000E-01,+0.000000E+00,-8.000000E-04
-4.780000E-07,-1.600000E-01,+0.000000E+00,-4.000000E-04
-4.760000E-07,-1.600000E-01,+0.000000E+00,+0.000000E+00
-4.740000E-07,-1.600000E-01,+0.000000E+00,+0.000000E+00
-4.720000E-07,-1.600000E-01,+0.000000E+00,-4.000000E-04
-4.700000E-07,-1.600000E-01,+0.000000E+00,-8.000000E-04
-4.680000E-07,-1.600000E-01,+0.000000E+00,-8.000000E-04
-4.660000E-07,-1.600000E-01,+0.000000E+00,-8.000000E-04
-4.640000E-07,-1.600000E-01,+0.000000E+00,-8.000000E-04
-4.620000E-07,-1.600000E-01,+0.000000E+00,-4.000000E-04
-4.600000E-07,-1.600000E-01,+0.000000E+00,-4.000000E-04
-4.580000E-07,-1.600000E-01,+0.000000E+00,-4.000000E-04
-4.560000E-07,-1.600000E-01,+0.000000E+00,-4.000000E-04
-4.540000E-07,-1.600000E-01,+0.000000E+00,-4.000000E-04
-4.520000E-07,-1.600000E-01,+0.000000E+00,-4.000000E-04
-4.500000E-07,-1.600000E-01,+0.000000E+00,-8.000000E-04
-4.480000E-07,-1.600000E-01,+0.000000E+00,-8.000000E-04
-4.460000E-07,-1.600000E-01,+0.000000E+00,-4.000000E-04
-4.440000E-07,-1.600000E-01,+0.000000E+00,-4.000000E-04
-4.420000E-07,-1.600000E-01,+0.000000E+00,-4.000000E-04
-4.400000E-07,-1.600000E-01,+0.000000E+00,-4.000000E-04
-4.380000E-07,-1.600000E-01,+0.000000E+00,-4.000000E-04
-4.360000E-07,-1.600000E-01,+0.000000E+00,-4.000000E-04
-4.340000E-07,-1.600000E-01,+0.000000E+00,-4.000000E-04
-4.320000E-07,-8.000000E-02,+0.000000E+00,-8.000000E-04
-4.300000E-07,-1.600000E-01,+0.000000E+00,-8.000000E-04
-4.280000E-07,-1.600000E-01,+0.000000E+00,-1.200000E-03
-4.260000E-07,-1.600000E-01,+0.000000E+00,-8.000000E-04
-4.240000E-07,-1.600000E-01,+0.000000E+00,+0.000000E+00
-4.220000E-07,-1.600000E-01,+0.000000E+00,+0.000000E+00
-4.200000E-07,-1.600000E-01,+0.000000E+00,+0.000000E+00
-4.180000E-07,-1.600000E-01,+0.000000E+00,-4.000000E-04
-4.160000E-07,-8.000000E-02,+0.000000E+00,-4.000000E-04
-4.140000E-07,-1.600000E-01,+0.000000E+00,-8.000000E-04
-4.120000E-07,-8.000000E-02,+0.000000E+00,-8.000000E-04
-4.100000E-07,-1.600000E-01,+0.000000E+00,-8.000000E-04
-4.080000E-07,-1.600000E-01,+0.000000E+00,-4.000000E-04
-4.060000E-07,-1.600000E-01,+0.000000E+00,+0.000000E+00
-4.040000E-07,-1.600000E-01,+0.000000E+00,+0.000000E+00
-4.020000E-07,-1.600000E-01,+0.000000E+00,+0.000000E+00
-4.000000E-07,-1.600000E-01,+0.000000E+00,-4.000000E-04
-3.980000E-07,-1.600000E-01,+0.000000E+00,-8.000000E-04
-3.960000E-07,-1.600000E-01,+0.000000E+00,-8.000000E-04
-3.940000E-07,-8.000000E-02,+0.000000E+00,-8.000000E-04
-3.920000E-07,-8.000000E-02,+0.000000E+00,-8.000000E-04
-3.900000E-07,-1.600000E-01,+0.000000E+00,-4.000000E-04
-3.880000E-07,-1.600000E-01,+0.000000E+00,-4.000000E-04
-3.860000E-07,-1.600000E-01,+0.000000E+00,-4.000000E-04
-3.840000E-07,-8.000000E-02,+0.000000E+00,-4.000000E-04
-3.820000E-07,-1.600000E-01,+0.000000E+00,-4.000000E-04
-3.800000E-07,-1.600000E-01,+0.000000E+00,-4.000000E-04
-3.780000E-07,-1.600000E-01,+0.000000E+00,-4.000000E-04
-3.760000E-07,-1.600000E-01,+0.000000E+00,-8.000000E-04
-3.740000E-07,-1.600000E-01,+0.000000E+00,-8.000000E-04
-3.720000E-07,-1.600000E-01,+0.000000E+00,-8.000000E-04
-3.700000E-07,-1.600000E-01,+0.000000E+00,-4.000000E-04
-3.680000E-07,-1.600000E-01,+0.000000E+00,+0.000000E+00
-3.660000E-07,-1.600000E-01,+0.000000E+00,+0.000000E+00
-3.640000E-07,-1.600000E-01,+0.000000E+00,-4.000000E-04
-3.620000E-07,-1.600000E-01,+0.000000E+00,-8.000000E-04
-3.600000E-07,-1.600000E-01,+0.000000E+00,-8.000000E-04
-3.580000E-07,-1.600000E-01,+0.000000E+00,-8.000000E-04
-3.560000E-07,-1.600000E-01,+0.000000E+00,-4.000000E-04
-3.540000E-07,-1.600000E-01,+0.000000E+00,-4.000000E-04
-3.520000E-07,-1.600000E-01,+0.000000E+00,-4.000000E-04
-3.500000E-07,-8.000000E-02,+0.000000E+00,-4.000000E-04
-3.480000E-07,-1.600000E-01,+0.000000E+00,+0.000000E+00
-3.460000E-07,-1.600000E-01,+0.000000E+00,-4.000000E-04
-3.440000E-07,-1.600000E-01,+0.000000E+00,-8.000000E-04
-3.420000E-07,-1.600000E-01,+0.000000E+00,-4.000000E-04
-3.400000E-07,-1.600000E-01,+0.000000E+00,-4.000000E-04
-3.380000E-07,-1.600000E-01,+0.000000E+00,-4.000000E-04
-3.360000E-07,-1.600000E-01,+0.000000E+00,-4.000000E-04
-3.340000E-07,-1.600000E-01,+0.000000E+00,-4.000000E-04
-3.320000E-07,-1.600000E-01,+0.000000E+00,-4.000000E-04
-3.300000E-07,-1.600000E-01,+0.000000E+00,-4.000000E-04
-3.280000E-07,-1.600000E-01,+0.000000E+00,-4.000000E-04
-3.260000E-07,-1.600000E-01,+0.000000E+00,-4.000000E-04
-3.240000E-07,-1.600000E-01,+0.000000E+00,-4.000000E-04
-3.220000E-07,-1.600000E-01,+0.000000E+00,-4.000000E-04
-3.200000E-07,-1.600000E-01,+0.000000E+00,-4.000000E-04
-3.180000E-07,-1.600000E-01,+0.000000E+00,-4.000000E-04
-3.160000E-07,-1.600000E-01,+0.000000E+00,-8.000000E-04
-3.140000E-07,-1.600000E-01,+0.000000E+00,-8.000000E-04
-3.120000E-07,-1.600000E-01,+0.000000E+00,-4.000000E-04
-3.100000E-07,-1.600000E-01,+0.000000E+00,-4.000000E-04
-3.080000E-07,-1.600000E-01,+0.000000E+00,-4.000000E-04
-3.060000E-07,-1.600000E-01,+0.000000E+00,-4.000000E-04
-3.040000E-07,-1.600000E-01,+0.000000E+00,-8.000000E-04
-3.020000E-07,-1.600000E-01,+0.000000E+00,-4.000000E-04
-3.000000E-07,-1.600000E-01,+0.000000E+00,-4.000000E-04
-2.980000E-07,-1.600000E-01,+0.000000E+00,-4.000000E-04
-2.960000E-07,-1.600000E-01,+0.000000E+00,-4.000000E-04
-2.940000E-07,-1.600000E-01,+0.000000E+00,-8.000000E-04
-2.920000E-07,-1.600000E-01,+0.000000E+00,-4.000000E-04
-2.900000E-07,-8.000000E-02,+0.000000E+00,-4.000000E-04
-2.880000E-07,-1.600000E-01,+0.000000E+00,-4.000000E-04
-2.860000E-07,-1.600000E-01,+0.000000E+00,-8.000000E-04
-2.840000E-07,-1.600000E-01,+0.000000E+00,-4.000000E-04
-2.820000E-07,-1.600000E-01,+0.000000E+00,-4.000000E-04
-2.800000E-07,-8.000000E-02,+0.000000E+00,-4.000000E-04
-2.780000E-07,-1.600000E-01,+0.000000E+00,-8.000000E-04
-2.760000E-07,-1.600000E-01,+0.000000E+00,-8.000000E-04
-2.740000E-07,-1.600000E-01,+0.000000E+00,-8.000000E-04
-2.720000E-07,-1.600000E-01,+0.000000E+00,-4.000000E-04
-2.700000E-07,-1.600000E-01,+0.000000E+00,-4.000000E-04
-2.680000E-07,-1.600000E-01,+0.000000E+00,-4.000000E-04
-2.660000E-07,-1.600000E-01,+0.000000E+00,-8.000000E-04
-2.640000E-07,-1.600000E-01,+0.000000E+00,-8.000000E-04
-2.620000E-07,-8.000000E-02,+0.000000E+00,-8.000000E-04
-2.600000E-07,-1.600000E-01,+0.000000E+00,-8.000000E-04
-2.580000E-07,-1.600000E-01,+0.000000E+00,-4.000000E-04
-2.560000E-07,-1.600000E-01,+0.000000E+00,-4.000000E-04
-2.540000E-07,-8.000000E-02,+0.000000E+00,-8.000000E-04
-2.520000E-07,-1.600000E-01,+0.000000E+00,-4.000000E-04
-2.500000E-07,-8.000000E-02,+0.000000E+00,-4.000000E-04
-2.480000E-07,-1.600000E-01,+0.000000E+00,-4.000000E-04
-2.460000E-07,-1.600000E-01,+0.000000E+00,-8.000000E-04
-2.440000E-07,-1.600000E-01,+0.000000E+00,-8.000000E-04
-2.420000E-07,-1.600000E-01,+0.000000E+00,-8.000000E-04
-2.400000E-07,-8.000000E-02,+0.000000E+00,-4.000000E-04
-2.380000E-07,-1.600000E-01,+0.000000E+00,-4.000000E-04
-2.360000E-07,-1.600000E-01,+0.000000E+00,-4.000000E-04
-2.340000E-07,-1.600000E-01,+0.000000E+00,-8.000000E-04
-2.320000E-07,-1.600000E-01,+0.000000E+00,-4.000000E-04
-2.300000E-07,-1.600000E-01,+0.000000E+00,-4.000000E-04
-2.280000E-07,-1.600000E-01,+0.000000E+00,-8.000000E-04
-2.260000E-07,-1.600000E-01,+0.000000E+00,-8.000000E-04
-2.240000E-07,-1.600000E-01,+0.000000E+00,-8.000000E-04
-2.220000E-07,-1.600000E-01,+0.000000E+00,-4.000000E-04
-2.200000E-07,-1.600000E-01,+0.000000E+00,+0.000000E+00
-2.180000E-07,-1.600000E-01,+0.000000E+00,-4.000000E-04
-2.160000E-07,-8.000000E-02,+0.000000E+00,-8.000000E-04
-2.140000E-07,-1.600000E-01,+0.000000E+00,-8.000000E-04
-2.120000E-07,-1.600000E-01,+0.000000E+00,-4.000000E-04
-2.100000E-07,-1.600000E-01,+0.000000E+00,-4.000000E-04
-2.080000E-07,-1.600000E-01,+0.000000E+00,+0.000000E+00
-2.060000E-07,-1.600000E-01,+0.000000E+00,-4.000000E-04
-2.040000E-07,-1.600000E-01,+0.000000E+00,-8.000000E-04
-2.020000E-07,-1.600000E-01,+0.000000E+00,-1.200000E-03
-2.000000E-07,-8.000000E-02,+0.000000E+00,-4.000000E-04
-1.980000E-07,-8.000000E-02,+0.000000E+00,+0.000000E+00
-1.960000E-07,-1.600000E-01,+0.000000E+00,+0.000000E+00
-1.940000E-07,-1.600000E-01,+0.000000E+00,-4.000000E-04
-1.920000E-07,-1.600000E-01,+0.000000E+00,-4.000000E-04
-1.900000E-07,-1.600000E-01,+0.000000E+00,-4.000000E-04
-1.880000E-07,-1.600000E-01,+0.000000E+00,-4.000000E-04
-1.860000E-07,-8.000000E-02,+0.000000E+00,-4.000000E-04
-1.840000E-07,-8.000000E-02,+0.000000E+00,-8.000000E-04
-1.820000E-07,-1.600000E-01,+0.000000E+00,-8.000000E-04
-1.800000E-07,-8.000000E-02,+0.000000E+00,-8.000000E-04
-1.780000E-07,-1.600000E-01,+0.000000E+00,-4.000000E-04
-1.760000E-07,-8.000000E-02,+0.000000E+00,-4.000000E-04
-1.740000E-07,-1.600000E-01,+0.000000E+00,+0.000000E+00
-1.720000E-07,-1.600000E-01,+0.000000E+00,+0.000000E+00
-1.700000E-07,-1.600000E-01,+0.000000E+00,+0.000000E+00
-1.680000E-07,-1.600000E-01,+0.000000E+00,-4.000000E-04
-1.660000E-07,-1.600000E-01,+0.000000E+00,-8.000000E-04
-1.640000E-07,-1.600000E-01,+0.000000E+00,-8.000000E-04
-1.620000E-07,-1.600000E-01,+0.000000E+00,-4.000000E-04
-1.600000E-07,-8.000000E-02,+0.000000E+00,-4.000000E-04
-1.580000E-07,-1.600000E-01,+0.000000E+00,-4.000000E-04
-1.560000E-07,-1.600000E-01,+0.000000E+00,-4.000000E-04
-1.540000E-07,-1.600000E-01,+0.000000E+00,+0.000000E+00
-1.520000E-07,-1.600000E-01,+0.000000E+00,+0.000000E+00
-1.500000E-07,-1.600000E-01,+0.000000E+00,+0.000000E+00
-1.480000E-07,-1.600000E-01,+0.000000E+00,-4.000000E-04
-1.460000E-07,-1.600000E-01,+0.000000E+00,-8.000000E-04
-1.440000E-07,-1.600000E-01,+0.000000E+00,-8.000000E-04
-1.420000E-07,-1.600000E-01,+0.000000E+00,-8.000000E-04
-1.400000E-07,-1.600000E-01,+0.000000E+00,-8.000000E-04
-1.380000E-07,-1.600000E-01,+0.000000E+00,-8.000000E-04
-1.360000E-07,-1.600000E-01,+0.000000E+00,-4.000000E-04
-1.340000E-07,-1.600000E-01,+0.000000E+00,+0.000000E+00
-1.320000E-07,-1.600000E-01,+0.000000E+00,+0.000000E+00
-1.300000E-07,-1.600000E-01,+0.000000E+00,+0.000000E+00
-1.280000E-07,-1.600000E-01,+0.000000E+00,-8.000000E-04
-1.260000E-07,-1.600000E-01,+0.000000E+00,-8.000000E-04
-1.240000E-07,-8.000000E-02,+0.000000E+00,-8.000000E-04
-1.220000E-07,-1.600000E-01,+0.000000E+00,-8.000000E-04
-1.200000E-07,-1.600000E-01,+0.000000E+00,-4.000000E-04
-1.180000E-07,-1.600000E-01,+0.000000E+00,-4.000000E-04
-1.160000E-07,-1.600000E-01,+0.000000E+00,-4.000000E-04
-1.140000E-07,-1.600000E-01,+0.000000E+00,-4.000000E-04
-1.120000E-07,-1.600000E-01,+0.000000E+00,+0.000000E+00
-1.100000E-07,-1.600000E-01,+0.000000E+00,+0.000000E+00
-1.080000E-07,-1.600000E-01,+0.000000E+00,-4.000000E-04
-1.060000E-07,-1.600000E-01,+0.000000E+00,-8.000000E-04
-1.040000E-07,-8.000000E-02,+0.000000E+00,-8.000000E-04
-1.020000E-07,-1.600000E-01,+0.000000E+00,-8.000000E-04
-1.000000E-07,-1.600000E-01,+0.000000E+00,-8.000000E-04
-9.800000E-08,-1.600000E-01,+0.000000E+00,-4.000000E-04
-9.600000E-08,-1.600000E-01,+0.000000E+00,-4.000000E-04
-9.400000E-08,-1.600000E-01,+0.000000E+00,-4.000000E-04
-9.200000E-08,-1.600000E-01,+0.000000E+00,-4.000000E-04
-9.000000E-08,-1.600000E-01,+0.000000E+00,-4.000000E-04
-8.800000E-08,-1.600000E-01,+0.000000E+00,-4.000000E-04
-8.600000E-08,-1.600000E-01,+0.000000E+00,-4.000000E-04
-8.400000E-08,-8.000000E-02,+0.000000E+00,-8.000000E-04
-8.200000E-08,-1.600000E-01,+0.000000E+00,-8.000000E-04
-8.000000E-08,-1.600000E-01,+0.000000E+00,-1.200000E-03
-7.800000E-08,-1.600000E-01,+0.000000E+00,-8.000000E-04
-7.600000E-08,-1.600000E-01,+0.000000E+00,-4.000000E-04
-7.400000E-08,-1.600000E-01,+0.000000E+00,+0.000000E+00
-7.200000E-08,-1.600000E-01,+0.000000E+00,+0.000000E+00
-7.000000E-08,-8.000000E-02,+0.000000E+00,-4.000000E-04
-6.800000E-08,-1.600000E-01,+0.000000E+00,-8.000000E-04
-6.600000E-08,-1.600000E-01,+0.000000E+00,-8.000000E-04
-6.400000E-08,-8.000000E-02,+0.000000E+00,-8.000000E-04
-6.200000E-08,-1.600000E-01,+0.000000E+00,-8.000000E-04
-6.000000E-08,-1.600000E-01,+0.000000E+00,-4.000000E-04
-5.800000E-08,-8.000000E-02,+0.000000E+00,-4.000000E-04
-5.600000E-08,-1.600000E-01,+0.000000E+00,-4.000000E-04
-5.400000E-08,-1.600000E-01,+0.000000E+00,-4.000000E-04
-5.200000E-08,-1.600000E-01,+0.000000E+00,-4.000000E-04
-5.000000E-08,-1.600000E-01,+0.000000E+00,-4.000000E-04
-4.800000E-08,-8.000000E-02,+0.000000E+00,-4.000000E-04
-4.600000E-08,-1.600000E-01,+0.000000E+00,-4.000000E-04
-4.400000E-08,-1.600000E-01,+0.000000E+00,-8.000000E-04
-4.200000E-08,-1.600000E-01,+0.000000E+00,-8.000000E-04
-4.000000E-08,-1.600000E-01,+0.000000E+00,-8.000000E-04
-3.800000E-08,-1.600000E-01,+0.000000E+00,-8.000000E-04
-3.600000E-08,-1.600000E-01,+0.000000E+00,-4.000000E-04
-3.400000E-08,-1.600000E-01,+0.000000E+00,+0.000000E+00
-3.200000E-08,-1.600000E-01,+0.000000E+00,+0.000000E+00
-3.000000E-08,-1.600000E-01,+0.000000E+00,-4.000000E-04
-2.800000E-08,-1.600000E-01,+0.000000E+00,-8.000000E-04
-2.600000E-08,-1.600000E-01,+0.000000E+00,-1.200000E-03
-2.400000E-08,-1.600000E-01,+0.000000E+00,-8.000000E-04
-2.200000E-08,-1.600000E-01,+0.000000E+00,-8.000000E-04
-2.000000E-08,-1.600000E-01,+0.000000E+00,-4.000000E-04
-1.800000E-08,-1.600000E-01,+0.000000E+00,+0.000000E+00
-1.600000E-08,-1.600000E-01,+0.000000E+00,-4.000000E-04
-1.400000E-08,-1.600000E-01,+0.000000E+00,-4.000000E-04
-1.200000E-08,-1.600000E-01,+0.000000E+00,-4.000000E-04
-1.000000E-08,-8.000000E-02,+0.000000E+00,-4.000000E-04
-8.000000E-09,-1.600000E-01,+0.000000E+00,-8.000000E-04
-6.000000E-09,-1.600000E-01,+0.000000E+00,-8.000000E-04
-4.000000E-09,+0.000000E+00,+0.000000E+00,-8.000000E-04
-2.000000E-09,+2.400000E-01,+0.000000E+00,-8.000000E-04
+2.117582E-22,+6.400000E-01,+0.000000E+00,-4.000000E-04
+2.000000E-09,+1.200000E+00,+0.000000E+00,+0.000000E+00
+4.000000E-09,+1.840000E+00,+0.000000E+00,-4.000000E-04
+6.000000E-09,+2.400000E+00,+0.000000E+00,-4.000000E-04
+8.000000E-09,+2.960000E+00,+0.000000E+00,-4.000000E-04
+1.000000E-08,+3.360000E+00,+0.000000E+00,-8.000000E-04
+1.200000E-08,+3.600000E+00,+0.000000E+00,-8.000000E-04
+1.400000E-08,+3.680000E+00,+0.000000E+00,-8.000000E-04
+1.600000E-08,+3.760000E+00,+0.000000E+00,-8.000000E-04
+1.800000E-08,+3.840000E+00,+0.000000E+00,-4.000000E-04
+2.000000E-08,+3.920000E+00,+0.000000E+00,-4.000000E-04
+2.200000E-08,+4.000000E+00,+2.000000E-01,-4.000000E-04
+2.400000E-08,+4.080000E+00,+0.000000E+00,-4.000000E-04
+2.600000E-08,+4.240000E+00,+0.000000E+00,+4.000000E-04
+2.800000E-08,+4.320000E+00,+0.000000E+00,+2.800000E-03
+3.000000E-08,+4.480000E+00,+0.000000E+00,+1.160000E-02
+3.200000E-08,+4.560000E+00,+0.000000E+00,+3.080000E-02
+3.400000E-08,+4.640000E+00,-2.000000E-01,+4.720000E-02
+3.600000E-08,+4.640000E+00,+0.000000E+00,+4.760000E-02
+3.800000E-08,+4.640000E+00,+0.000000E+00,+4.720000E-02
+4.000000E-08,+4.640000E+00,+0.000000E+00,+4.760000E-02
+4.200000E-08,+4.640000E+00,+0.000000E+00,+4.760000E-02
+4.400000E-08,+4.640000E+00,+0.000000E+00,+4.760000E-02
+4.600000E-08,+4.640000E+00,+2.000000E-01,+4.720000E-02
+4.800000E-08,+4.640000E+00,+4.000000E-01,+4.760000E-02
+5.000000E-08,+4.720000E+00,+1.000000E+00,+4.760000E-02
+5.200000E-08,+4.720000E+00,+2.000000E+00,+4.760000E-02
+5.400000E-08,+4.800000E+00,+3.000000E+00,+4.720000E-02
+5.600000E-08,+4.800000E+00,+4.000000E+00,+4.760000E-02
+5.800000E-08,+4.800000E+00,+4.800000E+00,+4.760000E-02
+6.000000E-08,+4.880000E+00,+5.600000E+00,+4.760000E-02
+6.200000E-08,+4.880000E+00,+6.400000E+00,+4.760000E-02
+6.400000E-08,+4.880000E+00,+6.800000E+00,+4.760000E-02
+6.600000E-08,+4.960000E+00,+7.000000E+00,+4.760000E-02
+6.800000E-08,+4.960000E+00,+7.400000E+00,+4.760000E-02
+7.000000E-08,+4.960000E+00,+7.800000E+00,+4.760000E-02
+7.200000E-08,+5.040000E+00,+8.000000E+00,+4.760000E-02
+7.400000E-08,+5.040000E+00,+8.000000E+00,+4.760000E-02
+7.600000E-08,+5.120000E+00,+8.200000E+00,+4.760000E-02
+7.800000E-08,+5.120000E+00,+8.200000E+00,+4.720000E-02
+8.000000E-08,+5.200000E+00,+8.400001E+00,+4.760000E-02
+8.200000E-08,+5.200000E+00,+8.400001E+00,+4.760000E-02
+8.400000E-08,+5.280000E+00,+8.400001E+00,+4.760000E-02
+8.600000E-08,+5.280000E+00,+8.400001E+00,+4.720000E-02
+8.800000E-08,+5.280000E+00,+8.000000E+00,+4.760000E-02
+9.000000E-08,+5.360000E+00,+7.600000E+00,+4.760000E-02
+9.200000E-08,+5.360000E+00,+6.600000E+00,+4.720000E-02
+9.400000E-08,+5.360000E+00,+5.600000E+00,+4.760000E-02
+9.600000E-08,+5.360000E+00,+4.800000E+00,+4.760000E-02
+9.800000E-08,+5.360000E+00,+3.800000E+00,+4.760000E-02
+1.000000E-07,+5.360000E+00,+3.000000E+00,+4.760000E-02
+1.020000E-07,+5.360000E+00,+2.200000E+00,+4.760000E-02
+1.040000E-07,+5.280000E+00,+2.000000E+00,+4.720000E-02
+1.060000E-07,+5.200000E+00,+1.600000E+00,+4.760000E-02
+1.080000E-07,+5.120000E+00,+1.600000E+00,+4.760000E-02
+1.100000E-07,+4.960000E+00,+1.600000E+00,+4.760000E-02
+1.120000E-07,+4.880000E+00,+1.600000E+00,+4.760000E-02
+1.140000E-07,+4.800000E+00,+1.600000E+00,+4.760000E-02
+1.160000E-07,+4.720000E+00,+1.600000E+00,+4.760000E-02
+1.180000E-07,+4.640000E+00,+1.400000E+00,+4.760000E-02
+1.200000E-07,+4.640000E+00,+1.400000E+00,+4.720000E-02
+1.220000E-07,+4.640000E+00,+1.200000E+00,+4.760000E-02
+1.240000E-07,+4.640000E+00,+1.000000E+00,+4.760000E-02
+1.260000E-07,+4.560000E+00,+1.000000E+00,+4.680000E-02
+1.280000E-07,+4.560000E+00,+8.000000E-01,+3.200000E-02
+1.300000E-07,+4.480000E+00,+8.000000E-01,+2.880000E-02
+1.320000E-07,+4.480000E+00,+8.000000E-01,+4.440000E-02
+1.340000E-07,+4.640000E+00,+6.000000E-01,+4.760000E-02
+1.360000E-07,+4.640000E+00,+4.000000E-01,+4.760000E-02
+1.380000E-07,+4.640000E+00,+4.000000E-01,+4.760000E-02
+1.400000E-07,+4.720000E+00,+2.000000E-01,+4.640000E-02
+1.420000E-07,+4.720000E+00,+4.000000E-01,+2.520000E-02
+1.440000E-07,+4.800000E+00,+2.000000E-01,+3.600000E-03
+1.460000E-07,+4.800000E+00,+4.000000E-01,+1.200000E-03
